Create readr column specification using regular expression matching — cols_regex • pal
…
readr::read_csv(file = raw_data,
                col_types = col_spec)
#> # A tibble: 1,770 × 15
#>    Gemeindenamen `BFS-Nr.` `Listen-Nr.` Liste `Wahlkreis-Nr.` Wahlkreis            Stimmen Stimmenanteil `+/- (Stimmenanteil)` Stimmenzusatz Wähler Wähleranteil
#>    <chr>             <int>        <int> <chr>           <int> <chr>                  <int>         <dbl>                 <dbl>         <int>  <int>        <dbl>
#>  1 Adlikon              21            1 SVP                16 Wahlkreis XVI, Ande…     468         56.0                  -6.21             8    117        56.0 
#>  2 Adlikon              21            2 SP                 16 Wahlkreis XVI, Ande…      39          4.67                 -0.19             0     10         4.67
#>  3 Adlikon              21            3 FDP                16 Wahlkreis XVI, Ande…     106         12.7                   1.73             0     27        12.7 
#>  4 Adlikon              21            4 GLP                16 Wahlkreis XVI, Ande…      36          4.31                  2.94             0      9         4.31
#>  5 Adlikon              21            5 Grüne              16 Wahlkreis XVI, Ande…      54          6.46                  0.86             0     14         6.46
#>  6 Adlikon              21            6 CVP                16 Wahlkreis XVI, Ande…       6          0.72                 -0.03             0      2         0.72
#>  7 Adlikon              21            7 EVP                16 Wahlkreis XVI, Ande…      52          6.22                  3.61             0     13         6.22
#>  8 Adlikon              21            8 AL                 16 Wahlkreis XVI, Ande…       7          0.84                 -0.28             0      2         0.84
#>  9 Adlikon              21            9 BDP                16 Wahlkreis XVI, Ande…      45          5.38                 -1.46             4     11         5.38
#> 10 Adlikon              21           10 EDU                16 Wahlkreis XVI, Ande…      23          2.75                 -0.98             0      6         2.75
#> # ℹ 1,760 more rows
#> # ℹ 3 more variables: `+/- (Wähleranteil)` <dbl>, `Stimmenanteil 2015` <dbl>, `Wähleranteil 2015` <dbl>

# we can also do basically the same in a more concise way without having to rely on
# `pal::dsv_colnames()`:
readr::read_csv(file = url,
                col_types = list(.default = "c")) %>%
  readr::type_convert(col_types = pal::cols_regex("^(Gemeindenamen|Liste|Wahlkreis)$" = "c",
                                                  "(?i)anteil" = "d",
                                                  .default = "i",
                                                  .col_names = colnames(.)))
#> # A tibble: 1,770 × 15
#>    Gemeindenamen `BFS-Nr.` `Listen-Nr.` Liste `Wahlkreis-Nr.` Wahlkreis            Stimmen Stimmenanteil `+/- (Stimmenanteil)` Stimmenzusatz Wähler Wähleranteil
#>    <chr>             <int>        <int> <chr>           <int> <chr>                  <int>         <dbl>                 <dbl>         <int>  <int>        <dbl>
#>  1 Adlikon              21            1 SVP                16 Wahlkreis XVI, Ande…     468         56.0                  -6.21             8    117        56.0 
#>  2 Adlikon              21            2 SP                 16 Wahlkreis XVI, Ande…      39          4.67                 -0.19             0     10         4.67
#>  3 Adlikon              21            3 FDP                16 Wahlkreis XVI, Ande…     106         12.7                   1.73             0     27        12.7 
#>  4 Adlikon              21            4 GLP                16 Wahlkreis XVI, Ande…      36          4.31                  2.94             0      9         4.31
#>  5 Adlikon              21            5 Grüne              16 Wahlkreis XVI, Ande…      54          6.46                  0.86             0     14         6.46
#>  6 Adlikon              21            6 CVP                16 Wahlkreis XVI, Ande…       6          0.72                 -0.03             0      2         0.72
#>  7 Adlikon              21            7 EVP                16 Wahlkreis XVI, Ande…      52          6.22                  3.61             0     13         6.22
#>  8 Adlikon              21            8 AL                 16 Wahlkreis XVI, Ande…       7          0.84                 -0.28             0      2         0.84
#>  9 Adlikon              21            9 BDP                16 Wahlkreis XVI, Ande…      45          5.38                 -1.46             4     11         5.38
#> 10 Adlikon              21           10 EDU                16 Wahlkreis XVI, Ande…      23          2.75                 -0.98             0      6         2.75
#> # ℹ 1,760 more rows
#> # ℹ 3 more variables: `+/- (Wähleranteil)` <dbl>, `Stimmenanteil 2015` <dbl>, `Wähleranteil 2015` <dbl>
…
